# 3ds Max Wavefront OBJ Exporter v0.97b - (c)2007 guruware
# File Created: 24.03.2019 14:47:38

mtllib CHAIR.mtl

#
# object Chair_Lo
#

v  -20.593800 43.987698 20.358385
v  -21.121830 43.987698 17.827597
v  -17.508089 43.987698 17.827597
v  -17.508089 43.987698 20.989014
v  17.508089 43.987698 17.827597
v  17.508089 43.987698 20.989014
v  -20.296492 43.987698 -16.993902
v  -16.603779 43.987698 -16.993902
v  -20.593800 45.487698 20.358385
v  -17.508089 45.487698 20.989014
v  -17.508089 45.487698 17.827597
v  -21.121830 45.487698 17.827597
v  17.508089 45.487698 20.989014
v  17.508089 45.487698 17.827597
v  -16.603779 45.487698 -16.993902
v  -20.296492 45.487698 -16.993902
v  -16.603779 45.487698 -20.368528
v  -16.603779 43.987698 -20.368528
v  20.593800 43.987698 20.358385
v  21.121830 43.987698 17.827597
v  16.603779 43.987698 -16.993902
v  20.296492 43.987698 -16.993902
v  16.603779 43.987698 -20.368528
v  20.593800 45.487698 20.358385
v  21.121830 45.487698 17.827597
v  20.296492 45.487698 -16.993902
v  16.603779 45.487698 -16.993902
v  16.603779 45.487698 -20.368528
v  16.999638 40.000011 17.500010
v  -17.000366 40.000004 17.500015
v  -17.000366 44.000004 17.500015
v  16.999638 44.000011 17.500010
v  16.999638 44.000011 19.500010
v  -17.000366 44.000004 19.500017
v  -17.000366 40.000004 19.500017
v  16.999638 40.000011 19.500010
v  17.000010 0.000000 17.000000
v  20.000010 0.000000 17.000000
v  20.000010 0.000000 20.000000
v  17.000010 0.000000 20.000000
v  17.000010 44.000000 20.000000
v  17.000010 44.000000 17.000000
v  20.000010 44.000000 20.000000
v  20.000010 44.000000 17.000000
v  17.500013 40.000011 16.999640
v  17.500013 44.000011 16.999640
v  17.500010 44.000004 -17.231100
v  17.500010 40.000004 -16.680723
v  19.500013 44.000011 16.999640
v  19.500013 40.000011 16.999640
v  19.500010 40.000004 -16.680723
v  19.500010 44.000004 -17.231100
v  -17.000010 0.000000 17.000002
v  -17.000010 0.000000 20.000002
v  -20.000010 0.000000 20.000002
v  -20.000010 0.000000 17.000002
v  -17.000023 44.000008 17.000002
v  -17.000023 44.000008 20.000002
v  -20.000023 44.000008 20.000002
v  -20.000025 44.000008 17.000002
v  -17.500013 7.325693 16.999634
v  -17.500021 7.325690 -19.039091
v  -17.500021 9.325690 -18.887934
v  -17.500013 9.325693 16.999634
v  -19.500021 9.325690 -18.887934
v  -19.500013 9.325693 16.999634
v  -19.500021 7.325690 -19.039091
v  -19.500013 7.325693 16.999634
v  16.999634 7.325693 17.500010
v  -17.000370 7.325687 17.500015
v  -17.000370 9.325686 17.500015
v  16.999634 9.325693 17.500010
v  -17.000370 9.325686 19.500017
v  16.999634 9.325693 19.500010
v  -17.000370 7.325687 19.500017
v  16.999634 7.325693 19.500010
v  17.500013 7.325699 16.999636
v  17.500013 9.325699 16.999636
v  17.500010 9.325693 -18.887932
v  17.500010 7.325693 -19.039089
v  19.500013 9.325699 16.999636
v  19.500010 9.325693 -18.887932
v  19.500013 7.325699 16.999636
v  19.500010 7.325693 -19.039089
v  16.999638 7.325699 -19.512831
v  16.999638 9.325699 -19.512831
v  -17.000372 9.325699 -19.512825
v  -17.000372 7.325696 -19.512825
v  16.999638 9.325699 -21.512831
v  -17.000372 9.325699 -21.512825
v  16.999638 7.325699 -21.512831
v  -17.000372 7.325699 -21.512827
v  -17.000000 0.000000 -19.523010
v  -20.000000 0.000000 -19.523010
v  -20.000000 0.000000 -22.523010
v  -17.000000 0.000000 -22.523010
v  -17.000000 90.242615 -23.709833
v  -17.000000 89.757408 -27.290232
v  -20.000000 89.757408 -27.290232
v  -20.000000 90.242615 -23.709833
v  -17.000000 40.025513 -16.693348
v  -20.000000 40.025513 -16.693348
v  -20.000000 40.025513 -20.306683
v  -17.000000 40.025513 -20.306683
v  17.000000 0.000000 -19.523008
v  17.000000 0.000000 -22.523008
v  20.000000 0.000000 -22.523008
v  20.000000 0.000000 -19.523008
v  17.000000 90.242607 -23.709803
v  20.000000 90.242607 -23.709803
v  20.000000 89.757393 -27.290201
v  17.000000 89.757393 -27.290201
v  20.000000 40.025509 -16.693333
v  17.000000 40.025509 -16.693333
v  20.000000 40.025509 -20.306669
v  17.000000 40.025509 -20.306669
v  16.999638 51.533821 -18.973423
v  16.999638 53.513378 -19.258635
v  5.666300 53.290710 -20.804102
v  5.666300 51.311153 -20.518890
v  -5.667037 53.290710 -20.804104
v  -5.667037 51.311146 -20.518892
v  -17.000372 53.513374 -19.258638
v  -17.000372 51.533813 -18.973425
v  16.999638 53.228168 -21.238194
v  5.666301 53.005501 -22.783663
v  -5.667037 53.005493 -22.783665
v  -17.000372 53.228161 -21.238197
v  16.999638 51.248608 -20.952982
v  5.666301 51.025936 -22.498449
v  -5.667037 51.025936 -22.498451
v  -17.000372 51.248604 -20.952986
v  6.349670 53.111965 -22.000271
v  6.226997 53.248379 -21.017244
v  6.226998 81.078018 -24.879160
v  6.349671 80.941605 -25.862186
v  8.211893 53.282104 -20.774227
v  8.211894 81.111748 -24.636143
v  8.334566 53.145691 -21.757254
v  8.334567 80.975334 -25.619169
v  1.000000 53.099098 -22.092966
v  1.000000 80.928726 -25.954885
v  1.000000 81.066177 -24.964376
v  1.000000 53.236549 -21.102457
v  -1.000000 81.066177 -24.964376
v  -1.000000 53.236549 -21.102457
v  -1.000000 80.928726 -25.954885
v  -1.000000 53.099098 -22.092966
v  -6.349667 53.111965 -22.000269
v  -6.349668 80.941605 -25.862188
v  -6.226995 81.078018 -24.879160
v  -6.226994 53.248379 -21.017242
v  -8.211890 81.111740 -24.636143
v  -8.211889 53.282104 -20.774225
v  -8.334563 80.975327 -25.619171
v  -8.334562 53.145691 -21.757252
v  16.999640 81.234459 -23.159863
v  16.999640 88.346344 -24.184782
v  5.666302 88.123619 -25.730244
v  5.666301 81.011742 -24.705322
v  -5.667035 88.123619 -25.730246
v  -5.667035 81.011742 -24.705324
v  -17.000372 88.346344 -24.184788
v  -17.000372 81.234459 -23.159866
v  16.999640 88.061058 -26.164331
v  5.666303 87.838341 -27.709793
v  -5.667035 87.838341 -27.709793
v  -17.000372 88.061058 -26.164337
v  16.999640 80.949181 -25.139412
v  5.666300 80.726463 -26.684874
v  -5.667035 80.726463 -26.684874
v  -17.000372 80.949181 -25.139418
v  16.999640 40.000011 -17.500010
v  16.999640 44.000011 -17.500010
v  -17.000370 44.000011 -17.500006
v  -17.000370 40.000008 -17.500006
v  16.999640 44.000011 -19.500010
v  16.999640 40.000011 -19.500010
v  -17.000370 40.000011 -19.500006
v  -17.000370 44.000011 -19.500006
v  -17.500013 40.000011 16.999638
v  -17.500021 40.000008 -16.680725
v  -17.500021 44.000008 -17.231100
v  -17.500013 44.000011 16.999638
v  -19.500013 44.000011 16.999638
v  -19.500021 44.000008 -17.231100
v  -19.500021 40.000008 -16.680725
v  -19.500013 40.000011 16.999638
# 188 vertices

vn -0.563547 -0.601845 0.565860
vn -0.728110 -0.682233 0.066439
vn 0.000000 -1.000000 -0.000000
vn -0.073297 -0.685144 0.724711
vn 0.073297 -0.685144 0.724711
vn -0.569847 -0.578607 -0.583514
vn -0.301511 -0.904534 -0.301511
vn -0.563547 0.601845 0.565860
vn -0.073297 0.685144 0.724711
vn 0.000000 1.000000 -0.000000
vn -0.728110 0.682232 0.066439
vn 0.073297 0.685144 0.724711
vn -0.301511 0.904534 -0.301511
vn -0.569847 0.578607 -0.583514
vn -0.577350 0.577350 -0.577350
vn -0.577350 -0.577350 -0.577350
vn 0.563547 -0.601845 0.565860
vn 0.728110 -0.682232 0.066439
vn 0.301511 -0.904534 -0.301511
vn 0.569847 -0.578607 -0.583514
vn 0.577350 -0.577350 -0.577350
vn 0.563547 0.601845 0.565860
vn 0.728110 0.682233 0.066439
vn 0.569847 0.578607 -0.583514
vn 0.301511 0.904534 -0.301511
vn 0.577350 0.577350 -0.577350
vn 0.000000 -0.707107 -0.707107
vn -0.000000 0.000000 -1.000000
vn 0.000000 0.000000 1.000000
vn 0.000000 -0.707107 0.707107
vn 0.577350 -0.577350 0.577350
vn -0.577350 -0.577350 0.577350
vn -0.707107 0.000000 0.707107
vn -0.707107 0.000000 -0.707107
vn 0.707107 0.000000 0.707107
vn 0.707107 0.000000 -0.707107
vn -0.707107 -0.707107 0.000000
vn -1.000000 0.000000 0.000000
vn -0.735960 -0.677026 0.000000
vn 1.000000 -0.000000 -0.000000
vn 0.707107 -0.707107 0.000000
vn 0.735960 -0.677026 0.000000
vn -0.707107 -0.000000 0.707107
vn -0.707107 -0.000000 -0.707107
vn 0.707107 -0.707106 -0.000000
vn 0.689502 -0.724284 -0.000000
vn 0.723488 0.690337 -0.000000
vn 0.707107 0.707107 -0.000000
vn -0.723489 0.690336 0.000000
vn -0.707106 0.707107 0.000000
vn -0.689502 -0.724284 0.000000
vn -0.000000 -0.707107 -0.707107
vn -0.000000 0.707107 -0.707107
vn 0.000000 0.707107 0.707107
vn -0.707107 0.707107 -0.000000
vn -0.723489 0.690336 -0.000000
vn 0.723489 0.690336 -0.000000
vn 0.689502 -0.724284 0.000000
vn 0.000000 -0.707107 0.707106
vn -0.000000 0.707107 -0.707106
vn -0.000000 -0.707106 -0.707108
vn 0.581153 -0.595384 0.554779
vn -0.581153 -0.595384 0.554779
vn -0.574497 -0.562545 -0.594556
vn 0.574497 -0.562545 -0.594556
vn 0.577568 0.650550 0.493153
vn 0.577098 0.493130 -0.650985
vn -0.577098 0.493130 -0.650984
vn -0.577568 0.650550 0.493153
vn 0.684323 0.024877 0.728755
vn -0.684323 0.024877 0.728755
vn -0.729668 -0.028778 -0.683196
vn 0.729668 -0.028778 -0.683196
vn -0.581152 -0.595384 0.554779
vn -0.574497 -0.562544 -0.594556
vn 0.574497 -0.562544 -0.594556
vn 0.581153 -0.595384 0.554778
vn 0.577098 0.493130 -0.650984
vn 0.684323 0.024876 0.728755
vn -0.684323 0.024876 0.728755
vn -0.100801 -0.562959 0.820314
vn -0.100802 0.771634 0.628029
vn -0.047268 0.813757 0.579280
vn -0.047267 -0.617131 0.785439
vn 0.047267 0.813757 0.579280
vn 0.047267 -0.617131 0.785439
vn 0.100801 0.771634 0.628028
vn 0.100801 -0.562959 0.820315
vn 0.092398 0.632833 -0.768755
vn 0.049377 0.582256 -0.811505
vn -0.049377 0.582256 -0.811505
vn -0.092398 0.632833 -0.768756
vn 0.092398 -0.824111 -0.558842
vn 0.049377 -0.787659 -0.614129
vn -0.049377 -0.787659 -0.614130
vn -0.092398 -0.824111 -0.558841
vn -0.615023 -0.108383 -0.781025
vn -0.788509 0.084537 0.609185
vn 0.615023 0.108383 0.781025
vn 0.788509 -0.084537 -0.609186
vn 0.788508 -0.084537 -0.609186
vn 0.707107 -0.097194 -0.700395
vn 0.707106 -0.097194 -0.700396
vn 0.707107 0.097194 0.700395
vn -0.707107 0.097194 0.700395
vn -0.707106 -0.097194 -0.700396
vn -0.707107 -0.097194 -0.700395
vn 0.615023 -0.108383 -0.781025
vn 0.788509 0.084537 0.609185
vn 0.788509 0.084537 0.609186
vn -0.615024 0.108383 0.781024
vn -0.615023 0.108383 0.781025
vn -0.788509 -0.084537 -0.609186
vn -0.100801 -0.562931 0.820334
vn -0.100801 0.771656 0.628001
vn -0.047268 0.813778 0.579251
vn -0.047268 -0.617103 0.785461
vn 0.047267 0.813778 0.579251
vn 0.047267 -0.617103 0.785461
vn 0.100801 0.771656 0.628001
vn 0.100801 -0.562931 0.820334
vn 0.092398 0.632806 -0.768778
vn 0.049377 0.582227 -0.811525
vn -0.049377 0.582227 -0.811525
vn -0.092397 0.632806 -0.768778
vn 0.092398 -0.824130 -0.558813
vn 0.049377 -0.787680 -0.614102
vn -0.049377 -0.787681 -0.614102
vn -0.092398 -0.824130 -0.558813
vn 0.000000 -0.000000 1.000000
vn -0.000000 -0.707106 -0.707107
vn 0.707107 -0.707107 -0.000000
vn 0.735960 -0.677026 -0.000000
vn 1.000000 0.000000 -0.000000
vn -0.735960 -0.677025 0.000000
# 135 vertex normals

vt 0.693423 0.348102 -0.004036
vt 0.672853 0.352410 -0.004036
vt 0.672831 0.323032 -0.004036
vt 0.698530 0.323013 -0.004036
vt 0.672610 0.038371 -0.004036
vt 0.698309 0.038351 -0.004036
vt 0.389770 0.345921 -0.004036
vt 0.389751 0.315901 -0.004036
vt 0.019845 0.351629 0.004036
vt 0.014625 0.326580 0.004036
vt 0.040455 0.326265 0.004036
vt 0.040558 0.355298 0.004036
vt 0.013754 0.042494 0.004036
vt 0.038850 0.042109 0.004036
vt 0.323384 0.316182 0.004036
vt 0.323374 0.346243 0.004036
vt 0.007440 0.353556 -0.004036
vt 0.002506 0.327666 -0.004036
vt 0.323533 0.358465 -0.004036
vt 0.039864 0.367202 -0.004036
vt 0.018407 0.364120 -0.004036
vt 0.331423 0.340220 0.004032
vt 0.361456 0.340230 0.004032
vt 0.361444 0.352397 -0.004032
vt 0.331454 0.352420 -0.004032
vt 0.358746 0.009232 0.004046
vt 0.358926 0.021553 -0.004046
vt 0.331423 0.021574 -0.004046
vt 0.331584 0.009446 0.004046
vt 0.693162 0.013269 -0.004036
vt 0.672586 0.008993 -0.004036
vt 0.389541 0.045943 -0.004036
vt 0.389514 0.015924 -0.004036
vt 0.362330 0.315923 -0.004036
vt 0.362122 0.045965 -0.004036
vt 0.018003 0.017414 0.004036
vt 0.038549 0.013680 0.004036
vt 0.321525 0.015027 0.004036
vt 0.321856 0.045868 0.004036
vt 0.349614 0.045939 0.004036
vt 0.350479 0.315968 0.004036
vt 0.005652 0.015820 -0.004036
vt 0.002000 0.041725 -0.004036
vt 0.321352 0.002000 -0.004036
vt 0.037681 0.002115 -0.004036
vt 0.016373 0.005050 -0.004036
vt 0.331485 0.038283 0.003075
vt 0.331423 0.026096 -0.003075
vt 0.361424 0.025944 -0.003075
vt 0.361486 0.038131 0.003075
vt 0.805307 0.384703 0.003075
vt 0.832724 0.384684 0.003075
vt 0.832732 0.396871 -0.003075
vt 0.805315 0.396890 -0.003075
vt 0.397413 0.789286 -0.023299
vt 0.673645 0.789091 -0.023299
vt 0.673668 0.821589 0.023299
vt 0.397436 0.821784 0.023299
vt 0.397378 0.740539 0.023299
vt 0.673610 0.740344 0.023299
vt 0.673633 0.772842 -0.023299
vt 0.397401 0.773037 -0.023299
vt 0.384267 0.766926 -1.087987
vt 0.384126 0.791299 -1.087987
vt 0.359753 0.791158 -1.087987
vt 0.359894 0.766785 -1.087987
vt 0.360035 0.742412 -1.087987
vt 0.002423 0.764717 1.087987
vt 0.002564 0.740344 1.087987
vt 0.002282 0.789090 1.087987
vt 0.359612 0.815531 -1.087987
vt 0.002141 0.813463 1.087987
vt 0.359472 0.839905 -1.087987
vt 0.002000 0.837836 1.087987
vt 0.675833 0.674517 -0.023375
vt 0.675999 0.707015 0.023375
vt 0.397896 0.708435 0.023375
vt 0.402202 0.675914 -0.023375
vt 0.675584 0.625770 0.023375
vt 0.675750 0.658268 -0.023375
vt 0.402119 0.659665 -0.023375
vt 0.397481 0.627190 0.023375
vt 0.002271 0.649871 -1.087979
vt 0.026643 0.650142 -1.087979
vt 0.026372 0.674514 -1.087979
vt 0.002000 0.674243 -1.087979
vt 0.026914 0.625770 -1.087979
vt 0.384370 0.629745 1.087979
vt 0.384099 0.654116 1.087979
vt 0.383828 0.678488 1.087979
vt 0.383557 0.702860 1.087979
vt 0.026101 0.698886 -1.087979
vt 0.383286 0.727233 1.087979
vt 0.025830 0.723258 -1.087979
vt 0.690299 0.899892 -0.007364
vt 0.397505 0.900462 -0.007364
vt 0.398701 0.884211 0.007364
vt 0.690267 0.883643 0.007364
vt 0.398669 0.867961 0.007364
vt 0.690236 0.867394 0.007364
vt 0.397410 0.851714 -0.007364
vt 0.690204 0.851145 -0.007364
vt 0.397378 0.835465 -0.007364
vt 0.690173 0.834896 -0.007364
vt 0.673887 0.978568 -0.007360
vt 0.397655 0.979748 -0.007360
vt 0.397586 0.963500 0.007360
vt 0.673817 0.962319 0.007360
vt 0.397517 0.947251 0.007360
vt 0.673748 0.946071 0.007360
vt 0.397447 0.931002 -0.007360
vt 0.673679 0.929822 -0.007360
vt 0.397378 0.914753 -0.007360
vt 0.673609 0.913573 -0.007360
vt 0.982590 0.628926 -0.007360
vt 0.982415 0.645174 0.007360
vt 0.690862 0.642031 0.007360
vt 0.689810 0.625770 -0.007360
vt 0.982240 0.661421 0.007360
vt 0.690688 0.658279 0.007360
vt 0.982065 0.677669 -0.007360
vt 0.689285 0.674514 -0.007360
vt 0.981890 0.693917 -0.007360
vt 0.689110 0.690762 -0.007360
vt 0.716449 0.327637 -0.007364
vt 0.716340 0.311388 0.007364
vt 0.992565 0.309527 0.007364
vt 0.992675 0.325775 -0.007364
vt 0.716231 0.295140 0.007364
vt 0.992456 0.293278 0.007364
vt 0.716121 0.278891 -0.007364
vt 0.992347 0.277029 -0.007364
vt 0.716012 0.262642 -0.007364
vt 0.992237 0.260780 -0.007364
vt 0.026397 0.536000 -1.149955
vt 0.026495 0.560940 -1.149955
vt 0.002096 0.560765 -1.149955
vt 0.002000 0.536367 -1.149955
vt 0.763318 0.535232 1.149955
vt 0.792703 0.535341 1.137588
vt 0.792606 0.559739 1.137588
vt 0.763221 0.559616 1.149955
vt 0.351837 0.535761 -0.129871
vt 0.351835 0.559632 -0.129871
vt 0.026069 0.586977 -1.149955
vt 0.352947 0.588229 -0.129871
vt 0.026644 0.612133 -1.149955
vt 0.352948 0.612396 -0.129871
vt 0.025104 0.511508 -1.149955
vt 0.352814 0.506687 -0.129871
vt 0.762238 0.588555 1.137588
vt 0.761661 0.612659 1.137588
vt 0.762967 0.505725 1.137588
vt 0.026378 0.458195 -1.154784
vt 0.002000 0.457785 -1.154784
vt 0.002322 0.433406 -1.154784
vt 0.026703 0.433641 -1.154784
vt 0.762775 0.463115 1.154784
vt 0.762832 0.438594 1.154784
vt 0.792196 0.438732 1.142365
vt 0.792139 0.463113 1.142365
vt 0.351752 0.439398 -0.130416
vt 0.351565 0.463462 -0.130416
vt 0.026383 0.409105 -1.154784
vt 0.352986 0.410358 -0.130416
vt 0.026995 0.384710 -1.154784
vt 0.352995 0.385990 -0.130416
vt 0.352348 0.492476 -0.130416
vt 0.024807 0.482664 -1.154784
vt 0.761941 0.409076 1.142365
vt 0.761347 0.384684 1.142365
vt 0.762389 0.492614 1.142365
vt 0.686971 0.789889 -0.005098
vt 0.686779 0.774032 0.008617
vt 0.780132 0.773237 0.007074
vt 0.780263 0.789676 -0.006641
vt 0.873046 0.772856 0.007074
vt 0.873047 0.789217 -0.006641
vt 0.966413 0.772818 0.008617
vt 0.966348 0.788849 -0.005098
vt 0.688288 0.758133 0.006641
vt 0.780849 0.756947 0.005098
vt 0.872176 0.756610 0.005098
vt 0.964745 0.756853 0.006641
vt 0.687804 0.741919 -0.007074
vt 0.780573 0.740686 -0.008617
vt 0.872305 0.740344 -0.008617
vt 0.965070 0.740637 -0.007074
vt 0.689018 0.805788 -0.007074
vt 0.781325 0.805949 -0.008617
vt 0.872103 0.805454 -0.008617
vt 0.964383 0.804844 -0.007074
vt 0.002000 0.996609 -0.234593
vt 0.002050 0.988485 -0.232307
vt 0.230312 0.989875 0.234028
vt 0.230263 0.998000 0.231742
vt 0.002149 0.972236 -0.231742
vt 0.230411 0.973627 0.234593
vt 0.002199 0.964111 -0.234028
vt 0.230461 0.965502 0.232307
vt 0.002297 0.947863 -0.234593
vt 0.230560 0.949253 0.231742
vt 0.703577 0.851144 -0.240403
vt 0.931844 0.852318 0.238040
vt 0.931802 0.860443 0.240403
vt 0.703535 0.859268 -0.238040
vt 0.931719 0.876691 0.240403
vt 0.703452 0.875517 -0.238040
vt 0.931677 0.884816 0.238040
vt 0.703410 0.883642 -0.240403
vt 0.703660 0.834896 -0.240403
vt 0.931927 0.836070 0.238040
vt 0.915263 0.962861 -0.234595
vt 0.686998 0.962320 0.231743
vt 0.687017 0.954196 0.234029
vt 0.915282 0.954737 -0.232309
vt 0.687055 0.937947 0.234595
vt 0.915320 0.938488 -0.231744
vt 0.687074 0.929822 0.232309
vt 0.915339 0.930363 -0.234030
vt 0.687113 0.913573 0.231743
vt 0.915378 0.914114 -0.234595
vt 0.995506 0.018568 -0.030107
vt 0.995604 0.076654 0.034739
vt 0.902260 0.077035 0.032708
vt 0.902274 0.018544 -0.032138
vt 0.809353 0.076836 0.032708
vt 0.809591 0.018345 -0.032138
vt 0.716012 0.076054 0.034739
vt 0.716359 0.017969 -0.030107
vt 0.993902 0.092600 0.032138
vt 0.901393 0.093292 0.030107
vt 0.810151 0.093095 0.030107
vt 0.717646 0.092007 0.032138
vt 0.994554 0.150945 -0.032708
vt 0.901656 0.151651 -0.034739
vt 0.809637 0.151454 -0.034739
vt 0.716744 0.150348 -0.032708
vt 0.993521 0.002590 -0.032708
vt 0.901299 0.002315 -0.034739
vt 0.810635 0.002120 -0.034739
vt 0.718413 0.002000 -0.032708
vt 0.278289 0.902253 -0.023299
vt 0.278232 0.934751 0.023299
vt 0.002000 0.934261 0.023299
vt 0.002058 0.901763 -0.023299
vt 0.278376 0.853506 0.023299
vt 0.278318 0.886004 -0.023299
vt 0.002087 0.885514 -0.023299
vt 0.002144 0.853016 0.023299
vt 0.716303 0.215171 -0.023375
vt 0.989934 0.213536 -0.023375
vt 0.994600 0.246006 0.023375
vt 0.716497 0.247669 0.023375
vt 0.716012 0.166425 0.023375
vt 0.994114 0.164762 0.023375
vt 0.989837 0.197287 -0.023375
vt 0.716206 0.198923 -0.023375
# 258 texture coords

g Chair_Lo
usemtl wire_087225143
s 1
f 1/1/1 2/2/2 3/3/3 
f 3/3/3 4/4/4 1/1/1 
f 3/3/3 5/5/3 6/6/5 
f 6/6/5 4/4/4 3/3/3 
f 2/2/2 7/7/6 8/8/7 
f 8/8/7 3/3/3 2/2/2 
f 9/9/8 10/10/9 11/11/10 
f 11/11/10 12/12/11 9/9/8 
f 10/10/9 13/13/12 14/14/10 
f 14/14/10 11/11/10 10/10/9 
f 12/12/11 11/11/10 15/15/13 
f 15/15/13 16/16/14 12/12/11 
f 1/17/1 4/18/4 10/10/9 
f 10/10/9 9/9/8 1/17/1 
f 7/19/6 2/20/2 12/12/11 
f 12/12/11 16/16/14 7/19/6 
f 2/20/2 1/21/1 9/9/8 
f 9/9/8 12/12/11 2/20/2 
f 16/22/14 15/23/13 8/24/7 
f 8/24/7 7/25/6 16/22/14 
f 17/26/15 18/27/16 8/28/7 
f 8/28/7 15/29/13 17/26/15 
f 19/30/17 6/6/5 5/5/3 
f 5/5/3 20/31/18 19/30/17 
f 20/31/18 5/5/3 21/32/19 
f 21/32/19 22/33/20 20/31/18 
f 5/5/3 3/3/3 8/8/7 
f 8/8/7 21/32/19 5/5/3 
f 8/8/7 18/34/16 23/35/21 
f 23/35/21 21/32/19 8/8/7 
f 24/36/22 25/37/23 14/14/10 
f 14/14/10 13/13/12 24/36/22 
f 25/37/23 26/38/24 27/39/25 
f 27/39/25 14/14/10 25/37/23 
f 14/14/10 27/39/25 15/15/13 
f 15/15/13 11/11/10 14/14/10 
f 28/40/26 17/41/15 15/15/13 
f 15/15/13 27/39/25 28/40/26 
f 19/42/17 24/36/22 13/13/12 
f 13/13/12 6/43/5 19/42/17 
f 6/43/5 13/13/12 10/10/9 
f 10/10/9 4/18/4 6/43/5 
f 22/44/20 26/38/24 25/37/23 
f 25/37/23 20/45/18 22/44/20 
f 20/45/18 25/37/23 24/36/22 
f 24/36/22 19/46/17 20/45/18 
f 26/47/24 22/48/20 21/49/19 
f 21/49/19 27/50/25 26/47/24 
f 28/51/26 27/52/25 21/53/19 
f 21/53/19 23/54/21 28/51/26 
f 17/41/15 28/40/26 23/35/21 
f 23/35/21 18/34/16 17/41/15 
f 29/55/27 30/56/27 31/57/28 
f 31/57/28 32/58/28 29/55/27 
f 33/59/29 34/60/29 35/61/30 
f 35/61/30 36/62/30 33/59/29 
f 36/62/30 35/61/30 30/56/27 
f 30/56/27 29/55/27 36/62/30 
f 37/63/16 38/64/21 39/65/31 
f 39/65/31 40/66/32 37/63/16 
f 37/67/16 40/66/32 41/68/33 
f 41/68/33 42/69/34 37/67/16 
f 40/66/32 39/65/31 43/70/35 
f 43/70/35 41/68/33 40/66/32 
f 39/65/31 38/71/21 44/72/36 
f 44/72/36 43/70/35 39/65/31 
f 38/71/21 37/73/16 42/74/34 
f 42/74/34 44/72/36 38/71/21 
f 45/75/37 46/76/38 47/77/38 
f 47/77/38 48/78/39 45/75/37 
f 49/79/40 50/80/41 51/81/42 
f 51/81/42 52/82/40 49/79/40 
f 50/80/41 45/75/37 48/78/39 
f 48/78/39 51/81/42 50/80/41 
f 53/83/21 54/84/31 55/85/32 
f 55/85/32 56/86/16 53/83/21 
f 53/87/21 57/88/36 58/89/35 
f 58/89/35 54/84/31 53/87/21 
f 54/84/31 58/89/35 59/90/43 
f 59/90/43 55/85/32 54/84/31 
f 55/85/32 59/90/43 60/91/44 
f 60/91/44 56/92/16 55/85/32 
f 56/92/16 60/91/44 57/93/36 
f 57/93/36 53/94/21 56/92/16 
f 61/95/45 62/96/46 63/97/47 
f 63/97/47 64/98/48 61/95/45 
f 64/98/48 63/97/47 65/99/49 
f 65/99/49 66/100/50 64/98/48 
f 66/100/50 65/99/49 67/101/51 
f 67/101/51 68/102/37 66/100/50 
f 68/102/37 67/101/51 62/103/46 
f 62/103/46 61/104/45 68/102/37 
f 69/105/52 70/106/27 71/107/53 
f 71/107/53 72/108/53 69/105/52 
f 72/108/53 71/107/53 73/109/54 
f 73/109/54 74/110/54 72/108/53 
f 74/110/54 73/109/54 75/111/30 
f 75/111/30 76/112/30 74/110/54 
f 76/112/30 75/111/30 70/113/27 
f 70/113/27 69/114/52 76/112/30 
f 77/115/37 78/116/55 79/117/56 
f 79/117/56 80/118/51 77/115/37 
f 78/116/55 81/119/48 82/120/57 
f 82/120/57 79/117/56 78/116/55 
f 81/119/48 83/121/41 84/122/58 
f 84/122/58 82/120/57 81/119/48 
f 83/121/41 77/123/37 80/124/51 
f 80/124/51 84/122/58 83/121/41 
f 85/125/30 86/126/54 87/127/54 
f 87/127/54 88/128/59 85/125/30 
f 86/126/54 89/129/53 90/130/60 
f 90/130/60 87/127/54 86/126/54 
f 89/129/53 91/131/52 92/132/61 
f 92/132/61 90/130/60 89/129/53 
f 91/131/52 85/133/30 88/134/59 
f 88/134/59 92/132/61 91/131/52 
f 93/135/62 94/136/63 95/137/64 
f 95/137/64 96/138/65 93/135/62 
f 97/139/66 98/140/67 99/141/68 
f 99/141/68 100/142/69 97/139/66 
f 94/136/63 93/135/62 101/143/70 
f 101/143/70 102/144/71 94/136/63 
f 95/145/64 94/136/63 102/144/71 
f 102/144/71 103/146/72 95/145/64 
f 96/147/65 95/145/64 103/146/72 
f 103/146/72 104/148/73 96/147/65 
f 93/135/62 96/149/65 104/150/73 
f 104/150/73 101/143/70 93/135/62 
f 100/142/69 102/144/71 101/143/70 
f 101/143/70 97/139/66 100/142/69 
f 99/151/68 103/146/72 102/144/71 
f 102/144/71 100/142/69 99/151/68 
f 98/152/67 104/148/73 103/146/72 
f 103/146/72 99/151/68 98/152/67 
f 97/139/66 101/143/70 104/150/73 
f 104/150/73 98/153/67 97/139/66 
f 105/154/74 106/155/75 107/156/76 
f 107/156/76 108/157/77 105/154/74 
f 109/158/69 110/159/66 111/160/78 
f 111/160/78 112/161/68 109/158/69 
f 108/157/77 113/162/79 114/163/80 
f 114/163/80 105/154/74 108/157/77 
f 107/164/76 115/165/73 113/162/79 
f 113/162/79 108/157/77 107/164/76 
f 106/166/75 116/167/72 115/165/73 
f 115/165/73 107/164/76 106/166/75 
f 105/154/74 114/163/80 116/168/72 
f 116/168/72 106/169/75 105/154/74 
f 110/159/66 109/158/69 114/163/80 
f 114/163/80 113/162/79 110/159/66 
f 111/170/78 110/159/66 113/162/79 
f 113/162/79 115/165/73 111/170/78 
f 112/171/68 111/170/78 115/165/73 
f 115/165/73 116/167/72 112/171/68 
f 109/158/69 112/172/68 116/168/72 
f 116/168/72 114/163/80 109/158/69 
f 117/173/81 118/174/82 119/175/83 
f 119/175/83 120/176/84 117/173/81 
f 120/176/84 119/175/83 121/177/85 
f 121/177/85 122/178/86 120/176/84 
f 122/178/86 121/177/85 123/179/87 
f 123/179/87 124/180/88 122/178/86 
f 118/174/82 125/181/89 126/182/90 
f 126/182/90 119/175/83 118/174/82 
f 119/175/83 126/182/90 127/183/91 
f 127/183/91 121/177/85 119/175/83 
f 121/177/85 127/183/91 128/184/92 
f 128/184/92 123/179/87 121/177/85 
f 125/181/89 129/185/93 130/186/94 
f 130/186/94 126/182/90 125/181/89 
f 126/182/90 130/186/94 131/187/95 
f 131/187/95 127/183/91 126/182/90 
f 127/183/91 131/187/95 132/188/96 
f 132/188/96 128/184/92 127/183/91 
f 129/189/93 117/173/81 120/176/84 
f 120/176/84 130/190/94 129/189/93 
f 130/190/94 120/176/84 122/178/86 
f 122/178/86 131/191/95 130/190/94 
f 131/191/95 122/178/86 124/180/88 
f 124/180/88 132/192/96 131/191/95 
f 133/193/97 134/194/98 135/195/98 
f 135/195/98 136/196/97 133/193/97 
f 134/194/98 137/197/99 138/198/99 
f 138/198/99 135/195/98 134/194/98 
f 137/197/99 139/199/100 140/200/101 
f 140/200/101 138/198/99 137/197/99 
f 139/199/100 133/201/97 136/202/97 
f 136/202/97 140/200/101 139/199/100 
f 141/203/102 142/204/103 143/205/104 
f 143/205/104 144/206/104 141/203/102 
f 144/206/104 143/205/104 145/207/105 
f 145/207/105 146/208/105 144/206/104 
f 146/208/105 145/207/105 147/209/106 
f 147/209/106 148/210/107 146/208/105 
f 148/211/107 147/212/106 142/204/103 
f 142/204/103 141/203/102 148/211/107 
f 149/213/108 150/214/108 151/215/109 
f 151/215/109 152/216/110 149/213/108 
f 152/216/110 151/215/109 153/217/111 
f 153/217/111 154/218/112 152/216/110 
f 154/218/112 153/217/111 155/219/113 
f 155/219/113 156/220/113 154/218/112 
f 156/220/113 155/219/113 150/221/108 
f 150/221/108 149/222/108 156/220/113 
f 157/223/114 158/224/115 159/225/116 
f 159/225/116 160/226/117 157/223/114 
f 160/226/117 159/225/116 161/227/118 
f 161/227/118 162/228/119 160/226/117 
f 162/228/119 161/227/118 163/229/120 
f 163/229/120 164/230/121 162/228/119 
f 158/224/115 165/231/122 166/232/123 
f 166/232/123 159/225/116 158/224/115 
f 159/225/116 166/232/123 167/233/124 
f 167/233/124 161/227/118 159/225/116 
f 161/227/118 167/233/124 168/234/125 
f 168/234/125 163/229/120 161/227/118 
f 165/231/122 169/235/126 170/236/127 
f 170/236/127 166/232/123 165/231/122 
f 166/232/123 170/236/127 171/237/128 
f 171/237/128 167/233/124 166/232/123 
f 167/233/124 171/237/128 172/238/129 
f 172/238/129 168/234/125 167/233/124 
f 169/239/126 157/223/114 160/226/117 
f 160/226/117 170/240/127 169/239/126 
f 170/240/127 160/226/117 162/228/119 
f 162/228/119 171/241/128 170/240/127 
f 171/241/128 162/228/119 164/230/121 
f 164/230/121 172/242/129 171/241/128 
f 173/243/30 174/244/29 175/245/130 
f 175/245/130 176/246/59 173/243/30 
f 177/247/28 178/248/52 179/249/131 
f 179/249/131 180/250/28 177/247/28 
f 178/248/52 173/243/30 176/246/59 
f 176/246/59 179/249/131 178/248/52 
f 181/251/132 182/252/133 183/253/134 
f 183/253/134 184/254/134 181/251/132 
f 185/255/38 186/256/38 187/257/135 
f 187/257/135 188/258/37 185/255/38 
f 188/258/37 187/257/135 182/252/133 
f 182/252/133 181/251/132 188/258/37 
# 240 faces

